{
	"info": {
		"_postman_id": "c95250c6-3102-4145-b8ce-af7be7c34362",
		"name": "melita",
		"schema": "https://schema.getpostman.com/json/collection/v2.1.0/collection.json"
	},
	"item": [
		{
			"name": "http://localhost:8080/api/v1/auth/login",
			"request": {
				"method": "POST",
				"header": [
					{
						"key": "Content-Type",
						"name": "Content-Type",
						"value": "application/json",
						"type": "text"
					}
				],
				"body": {
					"mode": "raw",
					"raw": "{\n\"username\":\"user\",\n\"password\":\"password\"\n}",
					"options": {
						"raw": {
							"language": "json"
						}
					}
				},
				"url": {
					"raw": "http://localhost:8080/api/v1/auth/login",
					"protocol": "http",
					"host": [
						"localhost"
					],
					"port": "8080",
					"path": [
						"api",
						"v1",
						"auth",
						"login"
					]
				}
			},
			"response": []
		},
		{
			"name": "http://localhost:8080/api/v1/orders",
			"request": {
				"auth": {
					"type": "bearer",
					"bearer": [
						{
							"key": "token",
							"value": "eyJhbGciOiJIUzI1NiJ9.eyJzdWIiOiJ1c2VyIiwicm9sZXMiOiJST0xFX1VTRVIiLCJpYXQiOjE1OTU4MTQ4OTMsImV4cCI6MTU5NTgxODQ5M30.yHlsrLtSWkAgT-5zdDBUs9Cfji9Q6BtA_mq3M-0EXMo",
							"type": "string"
						}
					]
				},
				"method": "POST",
				"header": [
					{
						"key": "Content-Type",
						"name": "Content-Type",
						"value": "application/json",
						"type": "text"
					}
				],
				"body": {
					"mode": "raw",
					"raw": "{\"customerDTO\": {\r\n        \r\n        \"email\": \"doej@hotmail.com\"\r\n       \r\n    },\r\n    \"packDTO\": [        {\r\n           \r\n            \"name\": \"256\",\r\n            \"productDTO\": {\r\n                \"name\": \"internet\"\r\n            }\r\n        }]}",
					"options": {
						"raw": {
							"language": "json"
						}
					}
				},
				"url": {
					"raw": "http://localhost:8080/api/v1/orders",
					"protocol": "http",
					"host": [
						"localhost"
					],
					"port": "8080",
					"path": [
						"api",
						"v1",
						"orders"
					]
				}
			},
			"response": []
		},
		{
			"name": "http://localhost:8080/api/v1/orders",
			"protocolProfileBehavior": {
				"disableBodyPruning": true
			},
			"request": {
				"auth": {
					"type": "bearer",
					"bearer": [
						{
							"key": "token",
							"value": "eyJhbGciOiJIUzI1NiJ9.eyJzdWIiOiJ1c2VyIiwicm9sZXMiOiJST0xFX1VTRVIiLCJpYXQiOjE1OTU4MTQ4OTMsImV4cCI6MTU5NTgxODQ5M30.yHlsrLtSWkAgT-5zdDBUs9Cfji9Q6BtA_mq3M-0EXMo",
							"type": "string"
						}
					]
				},
				"method": "GET",
				"header": [
					{
						"key": "Content-Type",
						"name": "Content-Type",
						"value": "application/json",
						"type": "text"
					}
				],
				"body": {
					"mode": "raw",
					"raw": "",
					"options": {
						"raw": {
							"language": "json"
						}
					}
				},
				"url": {
					"raw": "http://localhost:8080/api/v1/orders",
					"protocol": "http",
					"host": [
						"localhost"
					],
					"port": "8080",
					"path": [
						"api",
						"v1",
						"orders"
					]
				}
			},
			"response": []
		},
		{
			"name": "http://localhost:8080/api/v1/packages",
			"protocolProfileBehavior": {
				"disableBodyPruning": true
			},
			"request": {
				"auth": {
					"type": "bearer",
					"bearer": [
						{
							"key": "token",
							"value": "eyJhbGciOiJIUzI1NiJ9.eyJzdWIiOiJ1c2VyIiwicm9sZXMiOiJST0xFX1VTRVIiLCJpYXQiOjE1OTU4MTQ4OTMsImV4cCI6MTU5NTgxODQ5M30.yHlsrLtSWkAgT-5zdDBUs9Cfji9Q6BtA_mq3M-0EXMo",
							"type": "string"
						}
					]
				},
				"method": "GET",
				"header": [
					{
						"key": "Content-Type",
						"name": "Content-Type",
						"value": "application/json",
						"type": "text"
					}
				],
				"body": {
					"mode": "raw",
					"raw": "",
					"options": {
						"raw": {
							"language": "json"
						}
					}
				},
				"url": {
					"raw": "http://localhost:8080/api/v1/packages",
					"protocol": "http",
					"host": [
						"localhost"
					],
					"port": "8080",
					"path": [
						"api",
						"v1",
						"packages"
					]
				}
			},
			"response": []
		},
		{
			"name": "http://localhost:8080/api/v1/packages",
			"request": {
				"auth": {
					"type": "bearer",
					"bearer": [
						{
							"key": "token",
							"value": "eyJhbGciOiJIUzI1NiJ9.eyJzdWIiOiJ1c2VyIiwicm9sZXMiOiJST0xFX1VTRVIiLCJpYXQiOjE1OTU4MTQ4OTMsImV4cCI6MTU5NTgxODQ5M30.yHlsrLtSWkAgT-5zdDBUs9Cfji9Q6BtA_mq3M-0EXMo",
							"type": "string"
						}
					]
				},
				"method": "POST",
				"header": [
					{
						"key": "Content-Type",
						"name": "Content-Type",
						"value": "application/json",
						"type": "text"
					}
				],
				"body": {
					"mode": "raw",
					"raw": "{\r\n        \"name\": \"1GB\",\r\n        \"productDTO\": {\r\n            \"name\": \"internet\"\r\n        }\r\n    }",
					"options": {
						"raw": {
							"language": "json"
						}
					}
				},
				"url": {
					"raw": "http://localhost:8080/api/v1/packages",
					"protocol": "http",
					"host": [
						"localhost"
					],
					"port": "8080",
					"path": [
						"api",
						"v1",
						"packages"
					]
				}
			},
			"response": []
		},
		{
			"name": "http://localhost:8080/api/v1/packages/7",
			"request": {
				"auth": {
					"type": "bearer",
					"bearer": [
						{
							"key": "token",
							"value": "eyJhbGciOiJIUzI1NiJ9.eyJzdWIiOiJ1c2VyIiwicm9sZXMiOiJST0xFX1VTRVIiLCJpYXQiOjE1OTU4MTQ4OTMsImV4cCI6MTU5NTgxODQ5M30.yHlsrLtSWkAgT-5zdDBUs9Cfji9Q6BtA_mq3M-0EXMo",
							"type": "string"
						}
					]
				},
				"method": "DELETE",
				"header": [
					{
						"key": "Content-Type",
						"name": "Content-Type",
						"value": "application/json",
						"type": "text"
					}
				],
				"body": {
					"mode": "raw",
					"raw": "",
					"options": {
						"raw": {
							"language": "json"
						}
					}
				},
				"url": {
					"raw": "http://localhost:8080/api/v1/packages/7",
					"protocol": "http",
					"host": [
						"localhost"
					],
					"port": "8080",
					"path": [
						"api",
						"v1",
						"packages",
						"7"
					]
				}
			},
			"response": []
		},
		{
			"name": "http://localhost:8080/api/v1/products",
			"protocolProfileBehavior": {
				"disableBodyPruning": true
			},
			"request": {
				"auth": {
					"type": "bearer",
					"bearer": [
						{
							"key": "token",
							"value": "eyJhbGciOiJIUzI1NiJ9.eyJzdWIiOiJ1c2VyIiwicm9sZXMiOiJST0xFX1VTRVIiLCJpYXQiOjE1OTU4MTQ4OTMsImV4cCI6MTU5NTgxODQ5M30.yHlsrLtSWkAgT-5zdDBUs9Cfji9Q6BtA_mq3M-0EXMo",
							"type": "string"
						}
					]
				},
				"method": "GET",
				"header": [
					{
						"key": "Content-Type",
						"name": "Content-Type",
						"value": "application/json",
						"type": "text"
					}
				],
				"body": {
					"mode": "raw",
					"raw": "",
					"options": {
						"raw": {
							"language": "json"
						}
					}
				},
				"url": {
					"raw": "http://localhost:8080/api/v1/products",
					"protocol": "http",
					"host": [
						"localhost"
					],
					"port": "8080",
					"path": [
						"api",
						"v1",
						"products"
					]
				}
			},
			"response": []
		},
		{
			"name": "http://localhost:8080/api/v1/products/1",
			"protocolProfileBehavior": {
				"disableBodyPruning": true
			},
			"request": {
				"auth": {
					"type": "bearer",
					"bearer": [
						{
							"key": "token",
							"value": "eyJhbGciOiJIUzI1NiJ9.eyJzdWIiOiJ1c2VyIiwicm9sZXMiOiJST0xFX1VTRVIiLCJpYXQiOjE1OTU4MTQ4OTMsImV4cCI6MTU5NTgxODQ5M30.yHlsrLtSWkAgT-5zdDBUs9Cfji9Q6BtA_mq3M-0EXMo",
							"type": "string"
						}
					]
				},
				"method": "GET",
				"header": [
					{
						"key": "Content-Type",
						"name": "Content-Type",
						"value": "application/json",
						"type": "text"
					}
				],
				"body": {
					"mode": "raw",
					"raw": "",
					"options": {
						"raw": {
							"language": "json"
						}
					}
				},
				"url": {
					"raw": "http://localhost:8080/api/v1/products/1",
					"protocol": "http",
					"host": [
						"localhost"
					],
					"port": "8080",
					"path": [
						"api",
						"v1",
						"products",
						"1"
					]
				}
			},
			"response": []
		},
		{
			"name": "http://localhost:8080/api/v1/customers",
			"protocolProfileBehavior": {
				"disableBodyPruning": true
			},
			"request": {
				"auth": {
					"type": "bearer",
					"bearer": [
						{
							"key": "token",
							"value": "eyJhbGciOiJIUzI1NiJ9.eyJzdWIiOiJ1c2VyIiwicm9sZXMiOiJST0xFX1VTRVIiLCJpYXQiOjE1OTU4MTQ4OTMsImV4cCI6MTU5NTgxODQ5M30.yHlsrLtSWkAgT-5zdDBUs9Cfji9Q6BtA_mq3M-0EXMo",
							"type": "string"
						}
					]
				},
				"method": "GET",
				"header": [
					{
						"key": "Content-Type",
						"name": "Content-Type",
						"value": "application/json",
						"type": "text"
					}
				],
				"body": {
					"mode": "raw",
					"raw": "",
					"options": {
						"raw": {
							"language": "json"
						}
					}
				},
				"url": {
					"raw": "http://localhost:8080/api/v1/customers",
					"protocol": "http",
					"host": [
						"localhost"
					],
					"port": "8080",
					"path": [
						"api",
						"v1",
						"customers"
					]
				}
			},
			"response": []
		},
		{
			"name": "http://localhost:8080/api/v1/customers/1",
			"protocolProfileBehavior": {
				"disableBodyPruning": true
			},
			"request": {
				"auth": {
					"type": "bearer",
					"bearer": [
						{
							"key": "token",
							"value": "eyJhbGciOiJIUzI1NiJ9.eyJzdWIiOiJ1c2VyIiwicm9sZXMiOiJST0xFX1VTRVIiLCJpYXQiOjE1OTU4MTQ4OTMsImV4cCI6MTU5NTgxODQ5M30.yHlsrLtSWkAgT-5zdDBUs9Cfji9Q6BtA_mq3M-0EXMo",
							"type": "string"
						}
					]
				},
				"method": "GET",
				"header": [
					{
						"key": "Content-Type",
						"name": "Content-Type",
						"value": "application/json",
						"type": "text"
					}
				],
				"body": {
					"mode": "raw",
					"raw": "",
					"options": {
						"raw": {
							"language": "json"
						}
					}
				},
				"url": {
					"raw": "http://localhost:8080/api/v1/customers/1",
					"protocol": "http",
					"host": [
						"localhost"
					],
					"port": "8080",
					"path": [
						"api",
						"v1",
						"customers",
						"1"
					]
				}
			},
			"response": []
		},
		{
			"name": "http://localhost:8080/api/v1/customers",
			"request": {
				"auth": {
					"type": "bearer",
					"bearer": [
						{
							"key": "token",
							"value": "eyJhbGciOiJIUzI1NiJ9.eyJzdWIiOiJ1c2VyIiwicm9sZXMiOiJST0xFX1VTRVIiLCJpYXQiOjE1OTU4MTQ4OTMsImV4cCI6MTU5NTgxODQ5M30.yHlsrLtSWkAgT-5zdDBUs9Cfji9Q6BtA_mq3M-0EXMo",
							"type": "string"
						}
					]
				},
				"method": "PUT",
				"header": [
					{
						"key": "Content-Type",
						"name": "Content-Type",
						"value": "application/json",
						"type": "text"
					}
				],
				"body": {
					"mode": "raw",
					"raw": "{\r\n    \"firstname\": \"Joanna\",\r\n    \"lastname\": \"Doe\",\r\n    \"email\": \"doejad@hotmail.com\",\r\n    \"mobile\": \"+382652558934\",\r\n    \"installationAddress\": null,\r\n    \"installationDate\": \"2020-07-30\"\r\n}",
					"options": {
						"raw": {
							"language": "json"
						}
					}
				},
				"url": {
					"raw": "http://localhost:8080/api/v1/customers",
					"protocol": "http",
					"host": [
						"localhost"
					],
					"port": "8080",
					"path": [
						"api",
						"v1",
						"customers"
					]
				}
			},
			"response": []
		}
	],
	"protocolProfileBehavior": {}
}